8,4.68969e-06
80008,3.87216e-05
160008,0.000143608
240008,0.000219663
320008,0.00031847
400008,0.000348279
480008,0.000370568
560008,0.000499401
640008,0.00038112
720008,0.000371604
800008,0.000484861
880008,0.000504622
960008,0.00072939
1040008,0.000647815
1120008,0.000689607
1200008,0.000904214
1280008,0.000925659
1360008,0.000613756
1440008,0.000856459
1520008,0.000897485
1600008,0.000746698
1680008,0.000671694
1760008,0.000779927
1840008,0.000923284
1920008,0.00104696
2000008,0.000980729
2080008,0.000857353
2160008,0.00117161
2240008,0.00105837
2320008,0.00122283
2400008,0.00123676
2480008,0.00140367
2560008,0.00127381
2640008,0.00168336
2720008,0.00174938
2800008,0.00157683
2880008,0.00161255
2960008,0.00155956
3040008,0.00153139
3120008,0.00174543
3200008,0.00159985
3280008,0.0014603
3360008,0.00193909
3440008,0.00197747
3520008,0.0018201
3600008,0.0017252
3680008,0.00171646
3760008,0.0017072
3840008,0.00153898
3920008,0.0019557
4000008,0.00200692
4080008,0.00222768
4160008,0.00160818
4240008,0.00151011
4320008,0.00154506
4400008,0.00215034
4480008,0.00239305
4560008,0.00231499
4640008,0.00262998
4720008,0.0025112
4800008,0.00171836
4880008,0.00224062
4960008,0.00253008
5040008,0.00270103
5120008,0.00200761
5200008,0.00257459
5280008,0.00257269
5360008,0.00246743
5440008,0.00249989
5520008,0.00196126
5600008,0.00236867
5680008,0.00265342
5760008,0.00307896
5840008,0.00269873
5920008,0.00267495
6000008,0.00334246
6080008,0.0036183
6160008,0.00303872
6240008,0.00276059
6320008,0.00281475
6400008,0.00368907
6480008,0.00364768
6560008,0.00371043
6640008,0.00315726
6720008,0.00303363
6800008,0.00378419
6880008,0.00350702
6960008,0.00271644
7040008,0.00297819
7120008,0.00412067
7200008,0.00385075
7280008,0.00344146
7360008,0.00383387
7440008,0.00312251
7520008,0.00415627
7600008,0.00374939
7680008,0.00397268
7760008,0.00445743
7840008,0.00343837
7920008,0.00380855
